Events{3}
  Event (0,0): Actions{1}
    Action (603,1): Code[6 lines]
self.sign_width = sprite_get_width(spr_toy_sign);
self.sign_height = sprite_get_height(spr_toy_sign);

self.hue = 0;
self.sat = 255;
self.lum = 255;
  Event (0,3): Actions{1}
    Action (603,1): Code[4 lines]
self.hue += 1;
if (self.hue >=255) {
 self.hue -= 255;
}
  Event (0,8): Actions{1}
    Action (603,1): Code[11 lines]
var H = self.hue;
draw_sprite_stretched(spr_toy_sign, 0, 966, 141, self.sign_width, self.sign_height, make_color_hsv(H, self.sat, self.lum));
H += 80;
if (H>=255) { H-= 255; }
draw_sprite_stretched(spr_toy_sign, 0, 969, 264, self.sign_width, self.sign_height, make_color_hsv(H, self.sat, self.lum));
H += 80;
if (H>=255) { H-= 255; }
draw_sprite_stretched(spr_toy_sign, 0, 976, 394, self.sign_width, self.sign_height, make_color_hsv(H, self.sat, self.lum));
H += 80;
if (H>=255) { H-= 255; }
draw_sprite_stretched(spr_toy_sign, 0, 974, 524, self.sign_width, self.sign_height, make_color_hsv(H, self.sat, self.lum));
