Events{5}
  Event (0,0): Actions{1}
    Action (603,1): Code[75 lines]
global.easy = true;
self.drawTitle = false;
self.alarm[0] = 50;
global.first_time = false;
global.customLevel = false;

global.player_paused = true;
self.starting = false;

//Make the INI file if it doesn't exist:
var myFile = -1;
if (!file_exists("custom_level.ini")) {
  global.first_time = true;
  myFile = file_text_open_write("custom_level.ini");
  if (myFile>=0) {

file_text_write_string(myFile, ';#');
file_text_write_string(myFile, '; SPOILER WARNING: Contains enemy names.#');
file_text_write_string(myFile, ';#');
file_text_write_string(myFile, '; You can create your own custom levels here! #');
file_text_write_string(myFile, '; There are five spawners for each side of the level (and three for the top).#');
file_text_write_string(myFile, '; The left, right, and bottom sides have lines like so:#');
file_text_write_string(myFile, '; AXB:AXB:AXB:#');
file_text_write_string(myFile, '; ...where "AXB" means "Action A on Object B for X amount".#');
file_text_write_string(myFile, '; B is not always required. #');
file_text_write_string(myFile, '; NOTE: You MUST end with a colon!#');
file_text_write_string(myFile, '; Actions are:#');
file_text_write_string(myFile, ';   W : wait X ticks#');
file_text_write_string(myFile, ';   D : set delay after a single spawn to X#');
file_text_write_string(myFile, ';   S : spawn X objects#');
file_text_write_string(myFile, '; Objects are:#');
file_text_write_string(myFile, ';   D : ducklings#');
file_text_write_string(myFile, ';   M : mother ducklings#');
file_text_write_string(myFile, ';   P : plant#');
file_text_write_string(myFile, ';   S : superhero#');
file_text_write_string(myFile, ';   G : purple (globe) hero#');
file_text_write_string(myFile, ';   B : beam#');
file_text_write_string(myFile, '; The "Beam" should only be set for the top side (beam_spawn_fixed_*). #');
file_text_write_string(myFile, '; #');
file_text_write_string(myFile, '; It goes without saying that this is a VERY fragile format.#');
file_text_write_string(myFile, '; You can easily freeze the game or even your machine if you are not careful! But I hope you can have fun with this feature. ~Seth#');
file_text_write_string(myFile, ';#');
file_text_write_string(myFile, '; Sample file:#');
file_text_write_string(myFile, '#');
file_text_write_string(myFile, '[Right]#');
file_text_write_string(myFile, 'obj_toy_spawn_1="W5:D20:S5D:W5:S5D:"#');
file_text_write_string(myFile, 'obj_toy_spawn_2="W5:D80:S2M:"#');
file_text_write_string(myFile, 'obj_toy_spawn_3="W5:D20:S5D:W5:S5D:"#');
file_text_write_string(myFile, 'obj_toy_spawn_4="W5:D80:S2M:"#');
file_text_write_string(myFile, 'obj_toy_spawn_5="W5:D20:S5D:W5:S5D:"#');
file_text_write_string(myFile, '#');
file_text_write_string(myFile, '[Bottom]#');
file_text_write_string(myFile, 'obj_garden_spawn_1="W50:S1P:"#');
file_text_write_string(myFile, 'obj_garden_spawn_2="W100:S1P:"#');
file_text_write_string(myFile, 'obj_garden_spawn_3="W50:S1P:"#');
file_text_write_string(myFile, 'obj_garden_spawn_4="W100:S1P:"#');
file_text_write_string(myFile, 'obj_garden_spawn_5="W50:S1P:"#');
file_text_write_string(myFile, '#');
file_text_write_string(myFile, '[Left]#');
file_text_write_string(myFile, 'obj_comic_spawn_1="W5:D20:S2S:"#');
file_text_write_string(myFile, 'obj_comic_spawn_2="W5:D20:S2G:"#');
file_text_write_string(myFile, 'obj_comic_spawn_3="W5:D20:S2S:"#');
file_text_write_string(myFile, 'obj_comic_spawn_4="W5:D20:S2G:"#');
file_text_write_string(myFile, 'obj_comic_spawn_5="W5:D20:S2S:"#');
file_text_write_string(myFile, '#');
file_text_write_string(myFile, '[Top]#');
file_text_write_string(myFile, 'obj_beam_spawn_fixed="W100:S1B:"#');
file_text_write_string(myFile, 'obj_beam_spawn_fixed_2=""#');
file_text_write_string(myFile, 'obj_beam_spawn_fixed_3=""#');


    
    file_text_close(myFile);
  }
}
  Event (0,2): Actions{1}
    Action (603,1): Code[2 lines]
self.drawTitle = true;
audio_play_sound(mus_title, 1, true);
  Event (1,2): Actions{1}
    Action (603,1): Code[3 lines]
instance_create(1,1, obj_round_start);
audio_stop_all();
instance_destroy();
  Event (0,3): Actions{1}
    Action (603,1): Code[25 lines]
if (self.drawTitle) {
  if (keyboard_check(vk_space)) {
    //Start the game!
    if (!self.starting) {
      self.starting = true;
      audio_sound_gain(mus_title, 0, 2500);
      audio_play_sound(snd_ok, 1, false);
      alarm[1] = 30;
    }
  }
  if (keyboard_check(ord('H')) and !global.first_time) {
    if (global.easy) {
      audio_play_sound(snd_compy_on, 1, false);
      global.easy = false;
    }
  }
  if (keyboard_check(ord('C')) and !global.first_time) {
    if (!global.customLevel) {
      global.customLevel = true;
      audio_sound_gain(mus_title, 0, 2500);
      audio_play_sound(snd_ok, 1, false);
      alarm[1] = 30;
    }
  }
}
  Event (0,8): Actions{1}
    Action (603,1): Code[15 lines]
draw_set_color(c_black);
draw_set_alpha(0.5);
draw_rectangle(0,0,room_width, room_height);
draw_set_alpha(1.0);

if (self.drawTitle) {
  if (global.first_time) {
    draw_sprite(spr_title, 0, 0, 0);
  } else {
    draw_sprite(spr_title_s, 0, 0, 0);
  }
} else {
  //Black overlay.
  draw_rectangle(0,0,room_width, room_height);
}
