Events{10}
  Event (0,0): Actions{1}
    Action (603,1): Code[17 lines]
global.debug = false;

self.image_speed = 0;
self.image_virtual_index = 1.0;

self.x_incr = 0;
self.y_incr = 0;

self.health = 100;
self.mercy_invincible = 0;

//Set up our partical systems.
global.part_sys = part_system_create(); //high-up particles (most of them)
part_system_depth(global.part_sys,-99999);
global.part_sys_2 = part_system_create(); //Slightly higher
part_system_depth(global.part_sys_2,-100000);
scr_create_partical_types();
  Event (0,2): Actions{1}
    Action (603,1): Code[3 lines]
//Dead
self.visible = false;
instance_create(self.x+16, self.y+48, obj_tinypoof);
  Event (0,3): Actions{1}
    Action (603,1): Code[99 lines]
//No update if paused.
if (global.player_paused) { exit; }

//No update if dead.
if (self.dead) { exit; }

//Check death:
if (self.health<=0) {
  self.dead = true;
  obj_round_start.alarm[2] = 1;
  self.alarm[0] = 10;
  exit;
}


self.x_incr = 0;
self.y_incr = 0;
if keyboard_check(ord('W')) {
  y_incr -= 10;
}
if keyboard_check(ord('S')) {
  y_incr += 10;
}
if keyboard_check(ord('A')) {
  x_incr -= 10;
}
if keyboard_check(ord('D')) {
  x_incr += 10;
}

if (x_incr!=0 or y_incr!=0) {
  self.image_virtual_index += 0.25;
  if (self.image_virtual_index > 3) {
    self.image_virtual_index -= 3;
  }
}

var cursor_angle = point_direction(self.x, self.y, obj_cursor.x, obj_cursor.y);
if (cursor_angle>90-45 and cursor_angle<=90+45) {
  self.image_index = 1 * 4; //Up
} else if (cursor_angle>180-45 and cursor_angle<=180+45) {
  self.image_index = 3 * 4; //Left
} else if (cursor_angle>270-45 and cursor_angle<=270+45) {
  self.image_index = 0 * 4; //Down
} else {
  self.image_index = 2 * 4; //Right
}

self.image_index += self.image_virtual_index;


//Allow sliding along the wall.
if (place_meeting(self.x+2.0*(x_incr/abs(x_incr)), self.y, obj_block)>0) {
  x_incr = 0;
}
if (place_meeting(self.x, self.y+2.0*(y_incr/abs(y_incr)), obj_block)>0) {
  y_incr = 0;
}


//Try to actually move. (HAAAACKish)
if (x_incr!=0 or y_incr!=0) {
  if (place_meeting(self.x+x_incr, self.y+y_incr, obj_block)<=0) {
    self.x += x_incr;
    self.y += y_incr;
  } else {
    x_incr /= 2;
    y_incr /= 2;
    if (place_meeting(self.x+x_incr, self.y+y_incr, obj_block)<=0) {
      self.x += x_incr;
      self.y += y_incr;
    } else {
      x_incr /= 2;
      y_incr /= 2;
      if (place_meeting(self.x+x_incr, self.y+y_incr, obj_block)<=0) {
        self.x += x_incr;
        self.y += y_incr;
      }
    }
  }
}


//Fire?
if (mouse_check_button_pressed(mb_left)) {
  var ang = point_direction(self.x+16, self.y+48, obj_cursor.x, obj_cursor.y);
  var i = instance_create(self.x+16 + lengthdir_x(20, ang), self.y+48 + lengthdir_y(20, ang), obj_grenade);
  with(i) {
    hero = true;
    hspeed = lengthdir_x(20, ang);
    vspeed = lengthdir_y(20, ang);
  }
  audio_play_sound(snd_fire_grenade, 1, false);
}

//Lose mercy invincibility
if (self.mercy_invincible>0) {
  self.mercy_invincible -= 1;
}
  Event (obj_block,4): Actions{1}
    Action (603,1): Code[3 lines]
//var move_dir = point_direction(other.x, other.y, self.x, self.y);
var move_dir = point_direction(0, 0, -x_incr, -y_incr);
move_contact_solid(move_dir, 32);
  Event (obj_explosion_G,4): Actions{1}
    Action (603,1): Code[25 lines]
if (other.live and self.mercy_invincible<=0) {
  //Take the most damage
  if (place_meeting(self.x, self.y, obj_explosion_BIG)<=0) {
    if (place_meeting(self.x, self.y, obj_laser)<=0) {
      if (place_meeting(self.x, self.y, obj_globe)<=0) {
        if (global.easy) {
          self.health = max(0, self.health-1);
        } else {
          self.health = max(0, self.health-5);
        }
        self.mercy_invincible = 3;
   
        audio_play_sound(snd_hurt, 1, false);
        var i = instance_create(self.x+16, self.y-5, obj_damage);
        with(i) {
          if (global.easy) {
            sprite_index = pt_dmg_01;
          } else {
            sprite_index = pt_dmg_05;
          }
        }
      }
    }
  }
}
  Event (obj_explosion_BIG,4): Actions{1}
    Action (603,1): Code[22 lines]
if (other.live and self.mercy_invincible<=0) {
  if (place_meeting(self.x, self.y, obj_laser)<=0) {
    if (place_meeting(self.x, self.y, obj_globe)<=0) {
      if (global.easy) {
        self.health = max(0, self.health-10);
      } else {
        self.health = max(0, self.health-1);
      }
      self.mercy_invincible = 5;
  
      audio_play_sound(snd_hurt, 1, false);
      var i = instance_create(self.x+16, self.y-5, obj_damage);
      with(i) {
        if (global.easy) {
          sprite_index = pt_dmg_01;
        } else {
        sprite_index = pt_dmg_10;
        }
      }
    }
  }
}
  Event (obj_plant_prime,4): Actions{1}
    Action (603,1): Code[20 lines]
if (other.live and self.mercy_invincible<=0) {
  //Take the most damage
  if (place_meeting(self.x, self.y, obj_explosion_BIG)<=0) {
    //Take the most damage
    if (place_meeting(self.x, self.y, obj_explosion_G)<=0) {
      if (place_meeting(self.x, self.y, obj_laser)<=0) {
        if (place_meeting(self.x, self.y, obj_globe)<=0) {
          self.health = max(0, self.health-1);
          self.mercy_invincible = 2;
  
          audio_play_sound(snd_hurt, 1, false);
          var i = instance_create(self.x+16, self.y-5, obj_damage);
          with(i) {
            sprite_index = pt_dmg_01;
          }
        }
      }
    }
  }
}
  Event (obj_laser,4): Actions{1}
    Action (603,1): Code[18 lines]
if (other.live and self.mercy_invincible<=0) {
  if (global.easy) {
    self.health = max(0, self.health-1);
  } else {
    self.health = max(0, self.health-20);
  }
  self.mercy_invincible = 10;
   
  audio_play_sound(snd_hurt, 1, false);
  var i = instance_create(self.x+16, self.y-5, obj_damage);
  with(i) {
    if (global.easy) {
      sprite_index = pt_dmg_01;
    } else {
      sprite_index = pt_dmg_20;
    }
  }
}
  Event (obj_globe,4): Actions{1}
    Action (603,1): Code[18 lines]
if (other.live and self.mercy_invincible<=0) {
  if (global.easy) {
    self.health = max(0, self.health-1);
  } else {
    self.health = max(0, self.health-35);
  }
  self.mercy_invincible = 14;
   
  audio_play_sound(snd_hurt, 1, false);
  var i = instance_create(self.x+16, self.y-5, obj_damage);
  with(i) {
    if (global.easy) {
      sprite_index = pt_dmg_01;
    } else {
      sprite_index = pt_dmg_35;
    }
  }
}
  Event (obj_snowman,4): Actions{1}
    Action (603,1): Code[23 lines]
if (other.live and self.mercy_invincible<=0) {
  //Take the most damage
  if (place_meeting(self.x, self.y, obj_globe)<=0) {
    if (place_meeting(self.x, self.y, obj_laser)<=0) {
      if (global.easy) {
        self.health = max(0, self.health-1);
      } else {
        self.health = max(0, self.health-10);
      }
      self.mercy_invincible = 3;
   
      audio_play_sound(snd_hurt, 1, false);
      var i = instance_create(self.x+16, self.y-5, obj_damage);
      with(i) {
        if (global.easy) {
          sprite_index = pt_dmg_01;
        } else {
          sprite_index = pt_dmg_10;
        }
      }
    }
  }
}
