Events{10}
  Event (0,0): Actions{1}
    Action (603,1): Code[25 lines]
global.live_enemies += 1;

self.image_speed = 0.05;
//self.hspeed = random(3);
path_start(path_duck, 5, 2, false);
var toBoom = random(50) + 150
alarm[0] = toBoom;
self.live = true;

self.herokilled = false;

//Make ducklings
var count = 0;
repeat(4) {
  var i = instance_create(self.x, self.y, obj_duck_toy);
  count += 1;
  
  //...but don't let them walk yet.
  with (i) {
    isChild = true;
    path_end();
    alarm[0] = toBoom - 2;
    alarm[3] = count * 10;
  }
}
  Event (0,1): Actions{1}
    Action (603,1): Code[1 lines]
global.live_enemies -= 1;
  Event (0,2): Actions{1}
    Action (603,1): Code[4 lines]
path_end();
image_index = 1;
image_speed = 0;
alarm[1] = 10;
  Event (1,2): Actions{1}
    Action (603,1): Code[2 lines]
self.exclaim = instance_create(self.x, self.y-32, obj_question);
self.alarm[2] = random(75) + 50;
  Event (2,2): Actions{1}
    Action (603,1): Code[17 lines]
if (self.live) {
  self.live = false;
  var i = instance_create(self.x, self.y, obj_explosion_BIG);
  with(i) {
    self.hero = other.herokilled;
  }
  
  if (self.herokilled) {
    var j = instance_create(self.x, self.y, obj_star);
    j.image_index = 1;
  }
  
  with (self.exclaim) {
    instance_destroy();
  }
  instance_destroy();
}
  Event (obj_explosion_G,4): Actions{1}
    Action (603,1): Code[17 lines]
if (self.live and other.live) {
  self.live = false;
  with (self.exclaim) {
    instance_destroy();
  }
  var i = instance_create(self.x, self.y, obj_explosion_BIG);
  with(i) {
    self.hero = other.hero;
  }
  
  if (other.hero) {
    var j = instance_create(self.x, self.y, obj_star);
    j.image_index = 1;
  }
  
  instance_destroy();
}
  Event (obj_explosion_BIG,4): Actions{1}
    Action (603,1): Code[17 lines]
if (self.live and other.live) {
  self.live = false;
  with (self.exclaim) {
    instance_destroy();
  }
  var i = instance_create(self.x, self.y, obj_explosion_BIG);
  with(i) {
    self.hero = other.hero;
  }
  
  if (other.hero) {
    var j = instance_create(self.x, self.y, obj_star);
    j.image_index = 1;
  }
  
  instance_destroy();
}
  Event (obj_plant_prime,4): Actions{1}
    Action (603,1): Code[17 lines]
if (self.live and other.live) {
  self.live = false;
  with (self.exclaim) {
    instance_destroy();
  }
  var i = instance_create(self.x, self.y, obj_explosion_BIG);
  with(i) {
    self.hero = other.hero;
  }
  
  if (other.hero) {
    var j = instance_create(self.x, self.y, obj_star);
    j.image_index = 1;
  }
  
  instance_destroy();
}
  Event (obj_laser,4): Actions{1}
    Action (603,1): Code[17 lines]
if (self.live and other.live) {
  self.live = false;
  with (self.exclaim) {
    instance_destroy();
  }
  var i = instance_create(self.x, self.y, obj_explosion_BIG);
  with(i) {
    self.hero = other.hero;
  }
  
  if (other.hero) {
    var j = instance_create(self.x, self.y, obj_star);
    j.image_index = 1;
  }
  
  instance_destroy();
}
  Event (obj_globe,4): Actions{1}
    Action (603,1): Code[17 lines]
if (self.live and other.live) {
  self.live = false;
  with (self.exclaim) {
    instance_destroy();
  }
  var i = instance_create(self.x, self.y, obj_explosion_BIG);
  with(i) {
    self.hero = other.hero;
  }
  
  if (other.hero) {
    var j = instance_create(self.x, self.y, obj_star);
    j.image_index = 1;
  }
  
  instance_destroy();
}
